^C:\USERS\SNOW\DOCUMENTS\UNIVERSITY - MAIN\DX11\TUTORIAL PROJECTS\EXPANDED\PLANE HIERACHY - TAYLOR WILCOX\SHARED\DEBUG\APP.OBJ|C:\USERS\SNOW\DOCUMENTS\UNIVERSITY - MAIN\DX11\TUTORIAL PROJECTS\EXPANDED\PLANE HIERACHY - TAYLOR WILCOX\SHARED\DEBUG\COMMONAPP.OBJ|C:\USERS\SNOW\DOCUMENTS\UNIVERSITY - MAIN\DX11\TUTORIAL PROJECTS\EXPANDED\PLANE HIERACHY - TAYLOR WILCOX\SHARED\DEBUG\COMMONFONT.OBJ|C:\USERS\SNOW\DOCUMENTS\UNIVERSITY - MAIN\DX11\TUTORIAL PROJECTS\EXPANDED\PLANE HIERACHY - TAYLOR WILCOX\SHARED\DEBUG\COMMONMESH.OBJ|C:\USERS\SNOW\DOCUMENTS\UNIVERSITY - MAIN\DX11\TUTORIAL PROJECTS\EXPANDED\PLANE HIERACHY - TAYLOR WILCOX\SHARED\DEBUG\D3DHELPERS.OBJ
C:\USERS\SNOW\DOCUMENTS\UNIVERSITY - MAIN\DX11\TUTORIAL PROJECTS\EXPANDED\PLANE HIERACHY - TAYLOR WILCOX\HIERARCHY\DEBUG\SHARED.LIB
^C:\USERS\SNOW\DOCUMENTS\UNIVERSITY - MAIN\DX11\SEMESTER 1\TAYLOR WILCOX - ASSIGNMENT 1 - RESUBMISSION\EXPANDED\PLANE HIERACHY - TAYLOR WILCOX\SHARED\DEBUG\APP.OBJ|C:\USERS\SNOW\DOCUMENTS\UNIVERSITY - MAIN\DX11\SEMESTER 1\TAYLOR WILCOX - ASSIGNMENT 1 - RESUBMISSION\EXPANDED\PLANE HIERACHY - TAYLOR WILCOX\SHARED\DEBUG\COMMONAPP.OBJ|C:\USERS\SNOW\DOCUMENTS\UNIVERSITY - MAIN\DX11\SEMESTER 1\TAYLOR WILCOX - ASSIGNMENT 1 - RESUBMISSION\EXPANDED\PLANE HIERACHY - TAYLOR WILCOX\SHARED\DEBUG\COMMONFONT.OBJ|C:\USERS\SNOW\DOCUMENTS\UNIVERSITY - MAIN\DX11\SEMESTER 1\TAYLOR WILCOX - ASSIGNMENT 1 - RESUBMISSION\EXPANDED\PLANE HIERACHY - TAYLOR WILCOX\SHARED\DEBUG\COMMONMESH.OBJ|C:\USERS\SNOW\DOCUMENTS\UNIVERSITY - MAIN\DX11\SEMESTER 1\TAYLOR WILCOX - ASSIGNMENT 1 - RESUBMISSION\EXPANDED\PLANE HIERACHY - TAYLOR WILCOX\SHARED\DEBUG\D3DHELPERS.OBJ
C:\USERS\SNOW\DOCUMENTS\UNIVERSITY - MAIN\DX11\SEMESTER 1\TAYLOR WILCOX - ASSIGNMENT 1 - RESUBMISSION\EXPANDED\PLANE HIERACHY - TAYLOR WILCOX\HIERARCHY\DEBUG\SHARED.LIB
